userName,email,userPassword
"hwaylen2","jharrington6@gmail.com","NuT1uywg"
"lducarne0","dainsworth6@gmail.com","OaIBnRUY"
"dkersaw1","euff6@gmail.com","TuA7whomsYBq"
"dfranzonetti3","gluckie6@gmail.com","nCi808az8"
"lstansall4","mdakers6@gmail.com","Cozkz2iHeiq"
"dmaccostye5","gcanning6@gmail.com","HPT1uzl9ZYR"
"madamik6","cclimance6@gmail.com","UryKd0kU"